^C:\USERS\ACER\DESKTOP\ALLTHINGS\4-1\겜서버\IOCP_실습자료\IOCPGAMESERVER0413\IOCPGAMESERVER0413\X64\DEBUG\IOCPGAMESERVER.OBJ
C:\USERS\ACER\DESKTOP\ALLTHINGS\4-1\겜서버\IOCP_실습자료\IOCPGAMESERVER0413\X64\DEBUG\IOCPGAMESERVER0413.ILK
C:\USERS\ACER\DESKTOP\ALLTHINGS\4-1\겜서버\IOCP_실습자료\IOCPGAMESERVER0413\X64\DEBUG\IOCPGAMESERVER0413.EXE
C:\USERS\ACER\DESKTOP\ALLTHINGS\4-1\겜서버\IOCP_실습자료\IOCPGAMESERVER0413\X64\DEBUG\IOCPGAMESERVER0413.PDB
